// EVENT 7202
Name "ジーナ：試合"

ChangeSwitch(96,96,0)
ChangeSwitch(98,98,0)
ShowMessageFace("mob_kensi_fc1",0,0,2,1)
ShowMessage("\\n<Gina>Alright then, I'll be your opponent.")
ShowMessage("First, with my breasts...")
250(bytes(0x04,0x08,0x6f,0x3a,0x0c,0x52,0x50,0x47,0x3a,0x3a,0x53,0x45,0x08,0x3a,0x0a,0x40,0x6e,0x61,0x6d,0x65,0x49,0x22,0x12,0x6d,0x6f,0x6e,0x5f,0x65,0x72,0x6f,0x5f,0x6b,0x6f,0x6b,0x69,0x31,0x06,0x3a,0x06,0x45,0x54,0x3a,0x0b,0x40,0x70,0x69,0x74,0x63,0x68,0x69,0x69,0x3a,0x0c,0x40,0x76,0x6f,0x6c,0x75,0x6d,0x65,0x69,0x69))
PictureDisplay(5,"80_mob_kensi_st01",0,0,-190,0,100,100,255,0)
PictureDisplay(6,"ev_mob_kensi_ct11",0,0,240,50,100,100,255,0)
ChangeVariable(11,11,0,2,95,105)
311(0,1,1,1,11,true)
ShowMessageFace("",0,0,2,2)
ShowMessage("Gina pushes Luka's penis against her chest!")
ShowMessage("Luka can feel her breasts through her clothes!\\D")
ShowMessage("Luka takes \\V[11] damage!")
ChangeVariable(27,27,0,3,3,1,2)
If(1,27,0,0,0)
 RunCommonEvent(7205)
 EndEventProcessing()
 0()
EndIf()
ShowMessageFace("mob_kensi_fc1",0,0,2,3)
ShowMessage("\\n<Gina>My sex skills involve using my clothes like this.")
ShowMessage("But every man comes easily anyway...")
250(bytes(0x04,0x08,0x6f,0x3a,0x0c,0x52,0x50,0x47,0x3a,0x3a,0x53,0x45,0x08,0x3a,0x0a,0x40,0x6e,0x61,0x6d,0x65,0x49,0x22,0x12,0x6d,0x6f,0x6e,0x5f,0x65,0x72,0x6f,0x5f,0x6b,0x6f,0x6b,0x69,0x31,0x06,0x3a,0x06,0x45,0x54,0x3a,0x0b,0x40,0x70,0x69,0x74,0x63,0x68,0x69,0x69,0x3a,0x0c,0x40,0x76,0x6f,0x6c,0x75,0x6d,0x65,0x69,0x69))
ChangeVariable(11,11,0,2,95,105)
311(0,1,1,1,11,true)
ShowMessageFace("",0,0,2,4)
ShowMessage("Gina rubs his penis against her breasts!")
ShowMessage("Her soft, warm clothes massage his penis!\\D")
ShowMessage("Luka takes \\V[11] damage!")
ChangeVariable(27,27,0,3,3,1,2)
If(1,27,0,0,0)
 RunCommonEvent(7205)
 EndEventProcessing()
 0()
EndIf()
250(bytes(0x04,0x08,0x6f,0x3a,0x0c,0x52,0x50,0x47,0x3a,0x3a,0x53,0x45,0x08,0x3a,0x0a,0x40,0x6e,0x61,0x6d,0x65,0x49,0x22,0x12,0x6d,0x6f,0x6e,0x5f,0x65,0x72,0x6f,0x5f,0x6b,0x6f,0x6b,0x69,0x31,0x06,0x3a,0x06,0x45,0x54,0x3a,0x0b,0x40,0x70,0x69,0x74,0x63,0x68,0x69,0x69,0x3a,0x0c,0x40,0x76,0x6f,0x6c,0x75,0x6d,0x65,0x69,0x69))
ChangeVariable(11,11,0,2,95,105)
311(0,1,1,1,11,true)
ShowMessageFace("",0,0,2,5)
ShowMessage("His glans rubs against her breasts!")
ShowMessage("Her soft feel forces a unique stimulation into Luka!\\D")
ShowMessage("Luka takes \\V[11] damage!")
ChangeVariable(27,27,0,3,3,1,2)
If(1,27,0,0,0)
 RunCommonEvent(7205)
 EndEventProcessing()
 0()
EndIf()
ShowMessageFace("mob_kensi_fc1",0,0,2,6)
ShowMessage("\\n<Gina>What's wrong...?")
ShowMessage("You couldn't possibly come this fast, could you?")
250(bytes(0x04,0x08,0x6f,0x3a,0x0c,0x52,0x50,0x47,0x3a,0x3a,0x53,0x45,0x08,0x3a,0x0a,0x40,0x6e,0x61,0x6d,0x65,0x49,0x22,0x12,0x6d,0x6f,0x6e,0x5f,0x65,0x72,0x6f,0x5f,0x6b,0x6f,0x6b,0x69,0x31,0x06,0x3a,0x06,0x45,0x54,0x3a,0x0b,0x40,0x70,0x69,0x74,0x63,0x68,0x69,0x69,0x3a,0x0c,0x40,0x76,0x6f,0x6c,0x75,0x6d,0x65,0x69,0x69))
ChangeVariable(11,11,0,2,95,105)
311(0,1,1,1,11,true)
ShowMessageFace("",0,0,2,7)
ShowMessage("Gina continues to rub Luka's tip against her chest!")
ShowMessage("The smooth feeling of her clothes attacks him at the same time!\\D")
ShowMessage("Luka takes \\V[11] damage!")
ChangeVariable(27,27,0,3,3,1,2)
If(1,27,0,0,0)
 RunCommonEvent(7205)
 EndEventProcessing()
 0()
EndIf()
250(bytes(0x04,0x08,0x6f,0x3a,0x0c,0x52,0x50,0x47,0x3a,0x3a,0x53,0x45,0x08,0x3a,0x0a,0x40,0x6e,0x61,0x6d,0x65,0x49,0x22,0x12,0x6d,0x6f,0x6e,0x5f,0x65,0x72,0x6f,0x5f,0x6b,0x6f,0x6b,0x69,0x31,0x06,0x3a,0x06,0x45,0x54,0x3a,0x0b,0x40,0x70,0x69,0x74,0x63,0x68,0x69,0x69,0x3a,0x0c,0x40,0x76,0x6f,0x6c,0x75,0x6d,0x65,0x69,0x69))
ChangeVariable(11,11,0,2,95,105)
311(0,1,1,1,11,true)
ShowMessageFace("",0,0,2,8)
ShowMessage("Gina tucks Luka's penis between her clothed breasts!")
ShowMessage("She squeezes him between them!\\D")
ShowMessage("Luka takes \\V[11] damage!")
ChangeVariable(27,27,0,3,3,1,2)
If(1,27,0,0,0)
 RunCommonEvent(7205)
 EndEventProcessing()
 0()
EndIf()
If(1,27,0,175,4)
 ShowMessageFace("ruka_fc1",0,0,2,9)
 ShowMessage("\\n<Luka>A-Auu...")
 ShowMessageFace("mob_kensi_fc1",0,0,2,10)
  ShowMessage("\\n<Gina>...It looks like you're feeling it.")
 ShowMessage("You'll be coming everywhere in no time.")
 0()
Else()
 ShowMessageFace("mob_kensi_fc1",0,0,2,11)
  ShowMessage("\\n<Gina>It seems like you're holding on.")
 ShowMessage("Well then, I'll make you come everywhere down here...")
 0()
EndIf()
250(bytes(0x04,0x08,0x6f,0x3a,0x0c,0x52,0x50,0x47,0x3a,0x3a,0x53,0x45,0x08,0x3a,0x0a,0x40,0x6e,0x61,0x6d,0x65,0x49,0x22,0x12,0x6d,0x6f,0x6e,0x5f,0x65,0x72,0x6f,0x5f,0x6b,0x6f,0x6b,0x69,0x31,0x06,0x3a,0x06,0x45,0x54,0x3a,0x0b,0x40,0x70,0x69,0x74,0x63,0x68,0x69,0x69,0x3a,0x0c,0x40,0x76,0x6f,0x6c,0x75,0x6d,0x65,0x69,0x69))
PictureDisplay(6,"ev_mob_kensi_ct21",0,0,240,50,100,100,255,0)
ChangeVariable(11,11,0,2,95,105)
311(0,1,1,1,11,true)
ShowMessageFace("",0,0,2,12)
ShowMessage("Gina catches Luka's penis between her thighs!")
ShowMessage("The soft feeling of her clothes rubs against him!\\D")
ShowMessage("Luka takes \\V[11] damage!")
ChangeVariable(27,27,0,3,3,1,2)
If(1,27,0,0,0)
 RunCommonEvent(7206)
 EndEventProcessing()
 0()
EndIf()
ShowMessageFace("mob_kensi_fc1",0,0,2,13)
ShowMessage("\\n<Gina>No, let's go...")
ShowMessage("Can you withstand my thighs?")
250(bytes(0x04,0x08,0x6f,0x3a,0x0c,0x52,0x50,0x47,0x3a,0x3a,0x53,0x45,0x08,0x3a,0x0a,0x40,0x6e,0x61,0x6d,0x65,0x49,0x22,0x12,0x6d,0x6f,0x6e,0x5f,0x65,0x72,0x6f,0x5f,0x6b,0x6f,0x6b,0x69,0x31,0x06,0x3a,0x06,0x45,0x54,0x3a,0x0b,0x40,0x70,0x69,0x74,0x63,0x68,0x69,0x69,0x3a,0x0c,0x40,0x76,0x6f,0x6c,0x75,0x6d,0x65,0x69,0x69))
ChangeVariable(11,11,0,2,95,105)
311(0,1,1,1,11,true)
ShowMessageFace("",0,0,2,14)
ShowMessage("Gina rubs her thighs together!")
ShowMessage("Sandwiched between them, Luka's massaged by her clothed thighs!\\D")
ShowMessage("Luka takes \\V[11] damage!")
ChangeVariable(27,27,0,3,3,1,2)
If(1,27,0,0,0)
 RunCommonEvent(7206)
 EndEventProcessing()
 0()
EndIf()
250(bytes(0x04,0x08,0x6f,0x3a,0x0c,0x52,0x50,0x47,0x3a,0x3a,0x53,0x45,0x08,0x3a,0x0a,0x40,0x6e,0x61,0x6d,0x65,0x49,0x22,0x12,0x6d,0x6f,0x6e,0x5f,0x65,0x72,0x6f,0x5f,0x6b,0x6f,0x6b,0x69,0x31,0x06,0x3a,0x06,0x45,0x54,0x3a,0x0b,0x40,0x70,0x69,0x74,0x63,0x68,0x69,0x69,0x3a,0x0c,0x40,0x76,0x6f,0x6c,0x75,0x6d,0x65,0x69,0x69))
ChangeVariable(11,11,0,2,95,105)
311(0,1,1,1,11,true)
ShowMessageFace("",0,0,2,15)
ShowMessage("Gina tightly squeezes her thighs together!")
ShowMessage("Her soft thighs press hard against Luka's penis!\\D")
ShowMessage("Luka takes \\V[11] damage!")
ChangeVariable(27,27,0,3,3,1,2)
If(1,27,0,0,0)
 RunCommonEvent(7206)
 EndEventProcessing()
 0()
EndIf()
ShowMessageFace("mob_kensi_fc1",0,0,2,16)
ShowMessage("\\n<Gina>This is the finish...")
ShowMessage("Now, come all over my thighs...")
250(bytes(0x04,0x08,0x6f,0x3a,0x0c,0x52,0x50,0x47,0x3a,0x3a,0x53,0x45,0x08,0x3a,0x0a,0x40,0x6e,0x61,0x6d,0x65,0x49,0x22,0x12,0x6d,0x6f,0x6e,0x5f,0x65,0x72,0x6f,0x5f,0x6b,0x6f,0x6b,0x69,0x31,0x06,0x3a,0x06,0x45,0x54,0x3a,0x0b,0x40,0x70,0x69,0x74,0x63,0x68,0x69,0x69,0x3a,0x0c,0x40,0x76,0x6f,0x6c,0x75,0x6d,0x65,0x69,0x69))
ChangeVariable(11,11,0,2,95,105)
311(0,1,1,1,11,true)
ShowMessageFace("",0,0,2,17)
ShowMessage("Gina tightly presses Luka's penis between her thighs!")
ShowMessage("The incredible tightness overwhelms him!\\D")
ShowMessage("Luka takes \\V[11] damage!")
ChangeVariable(27,27,0,3,3,1,2)
If(1,27,0,0,0)
 RunCommonEvent(7206)
 EndEventProcessing()
 0()
EndIf()
250(bytes(0x04,0x08,0x6f,0x3a,0x0c,0x52,0x50,0x47,0x3a,0x3a,0x53,0x45,0x08,0x3a,0x0a,0x40,0x6e,0x61,0x6d,0x65,0x49,0x22,0x12,0x6d,0x6f,0x6e,0x5f,0x65,0x72,0x6f,0x5f,0x6b,0x6f,0x6b,0x69,0x31,0x06,0x3a,0x06,0x45,0x54,0x3a,0x0b,0x40,0x70,0x69,0x74,0x63,0x68,0x69,0x69,0x3a,0x0c,0x40,0x76,0x6f,0x6c,0x75,0x6d,0x65,0x69,0x69))
ChangeVariable(11,11,0,2,95,105)
311(0,1,1,1,11,true)
ShowMessageFace("",0,0,2,18)
ShowMessage("Like that, she starts rubbing his penis between her thighs!")
ShowMessage("Sandwiched between them, Gina massages him with her thighs!\\D")
ShowMessage("Luka takes \\V[11] damage!")
ChangeVariable(27,27,0,3,3,1,2)
If(1,27,0,0,0)
 RunCommonEvent(7206)
 EndEventProcessing()
 0()
EndIf()
RunCommonEvent(7204)
EndEventProcessing()
0()
