// EVENT 0030
Name "Skill: Beg For Item"

If(0,41,0)
 ShowMessageFace("",0,0,2,1)
 ShowMessage("You didn't receive any response!")
 EndEventProcessing()
 0()
EndIf()
355("b = NWConst::Var::ENEMY_REL_BASE")
655("e = b + v(NWConst::Var::ACTION_TARGET)")
655("$game_variables[e] += -10")
ChangeVariable(11,11,0,2,1,100)
If(1,11,1,106,2)
 ChangeVariable(20,20,0,0,4)
 ChangeVariable(25,25,0,0,2)
 ChangeVariable(51,51,0,1,101)
 355("common_event = ")
 655("$data_common_events[v(101)+1000]")
 655("child = Game_Interpreter.new(@depth+1)")
 655("child.setup(common_event.list, 0)")
 655("child.run")
 0()
Else()
 ShowMessageFace("",0,0,2,2)
 ShowMessage("...but was ignored.")
 0()
EndIf()
0()
